module gitlab.com/dubyte/leaderboard

go 1.22.1

require (
	github.com/DATA-DOG/go-sqlmock v1.5.2
	github.com/lib/pq v1.10.9
	github.com/stretchr/testify v1.9.0
)

require (
	github.com/davecgh/go-spew v1.1.1 // indirect
	github.com/pmezard/go-difflib v1.0.0 // indirect
	github.com/stretchr/objx v0.5.2 // indirect
	gopkg.in/yaml.v3 v3.0.1 // indirect
)
